<?xml version="1.0" encoding="UTF-8" standalone="no"?>
<!-- Created with Inkscape (http://www.inkscape.org/) -->

<svg
   width="210mm"
   height="297mm"
   viewBox="0 0 210 297"
   version="1.1"
   id="svg5"
   inkscape:version="1.1.2 (b8e25be8, 2022-02-05)"
   sodipodi:docname="front.svg"
   xmlns:inkscape="http://www.inkscape.org/namespaces/inkscape"
   xmlns:sodipodi="http://sodipodi.sourceforge.net/DTD/sodipodi-0.dtd"
   xmlns="http://www.w3.org/2000/svg"
   xmlns:svg="http://www.w3.org/2000/svg">
  <sodipodi:namedview
     id="namedview7"
     pagecolor="#ffffff"
     bordercolor="#666666"
     borderopacity="1.0"
     inkscape:pageshadow="2"
     inkscape:pageopacity="0.0"
     inkscape:pagecheckerboard="0"
     inkscape:document-units="mm"
     showgrid="false"
     inkscape:zoom="0.50230262"
     inkscape:cx="363.32679"
     inkscape:cy="622.13492"
     inkscape:window-width="1006"
     inkscape:window-height="791"
     inkscape:window-x="83"
     inkscape:window-y="25"
     inkscape:window-maximized="0"
     inkscape:current-layer="svgGroup" />
  <defs
     id="defs2">
    <inkscape:perspective
       sodipodi:type="inkscape:persp3d"
       inkscape:vp_x="0 : 148.5 : 1"
       inkscape:vp_y="0 : 1000 : 0"
       inkscape:vp_z="210 : 148.5 : 1"
       inkscape:persp3d-origin="105 : 99 : 1"
       id="perspective1226" />
    <inkscape:perspective
       sodipodi:type="inkscape:persp3d"
       inkscape:vp_x="0 : 148.5 : 1"
       inkscape:vp_y="0 : 1000 : 0"
       inkscape:vp_z="210 : 148.5 : 1"
       inkscape:persp3d-origin="105 : 99 : 1"
       id="perspective1226-8" />
  </defs>
  <g
     inkscape:label="Katman 1"
     inkscape:groupmode="layer"
     id="layer1">
    <g
       id="svgGroup"
       stroke-linecap="round"
       fill-rule="evenodd"
       font-size="12px"
       stroke="#000"
       stroke-width="0.25mm"
       fill="none"
       style="fill:none;stroke:#000000;stroke-width:0.25mm"
       transform="translate(-59.082707,14.232794)">
      <path
         d="m 76.346951,130.68776 v -2.953 h 9.590005 v 2.953 l 0.047,0.047 h 9.816 l 0.047,-0.047 v -2.953 h 9.590004 v 2.953 l 0.047,0.047 h 9.816 l 0.047,-0.047 v -2.953 h 9.59 v 2.953 l 0.047,0.047 h 9.816 l 0.047,-0.047 v -2.953 h 9.59 v 2.953 l 0.047,0.047 h 9.816 l 0.047,-0.047 v -2.953 h 9.59 v 2.953 l 0.047,0.047 h 9.816 l 0.047,-0.047 v -2.953 h 9.59 v 2.953 l 0.047,0.047 h 9.441 l 0.047,-0.047 v -14.441 l -0.047,-0.047 h -2.953 v -9.59 h 2.953 l 0.047,-0.047 v -9.815999 l -0.047,-0.047 h -2.953 v -9.59 h 2.953 l 0.047,-0.047 v -9.816 l -0.047,-0.047 h -2.953 v -9.59 h 2.953 l 0.047,-0.047 v -9.816 l -0.047,-0.047 h -2.953 v -9.589998 h 2.953 l 0.047,-0.047 v -9.816 l -0.047,-0.047 h -2.953 v -9.59 h 2.953 l 0.047,-0.047 v -9.816 l -0.047,-0.047 h -2.953 V 9.1097626 h 2.953 l 0.047,-0.047 v -14.441 l -0.047,-0.047 h -9.441 l -0.047,0.047 v 2.953 h -9.59 v -2.953 l -0.047,-0.047 h -9.816 l -0.047,0.047 v 2.953 h -9.59 v -2.953 l -0.047,-0.047 h -9.816 l -0.047,0.047 v 2.953 h -9.59 v -2.953 l -0.047,-0.047 h -9.816 l -0.047,0.047 v 2.953 h -9.59 v -2.953 l -0.047,-0.047 h -9.816 l -0.047,0.047 v 2.953 h -9.590004 v -2.953 l -0.047,-0.047 h -9.816 l -0.047,0.047 v 2.953 h -9.590005 v -2.953 l -0.047,-0.047 h -9.441 l -0.047,0.047 v 14.441 l 0.047,0.047 h 2.953 v 9.5900004 h -2.953 l -0.047,0.047 v 9.816 l 0.047,0.047 h 2.953 v 9.59 h -2.953 l -0.047,0.047 v 9.816 l 0.047,0.047 h 2.953 v 9.589998 h -2.953 l -0.047,0.047 v 9.816 l 0.047,0.047 h 2.953 v 9.59 h -2.953 l -0.047,0.047 v 9.816 l 0.047,0.047 h 2.953 v 9.59 h -2.953 l -0.047,0.047 v 9.815999 l 0.047,0.047 h 2.953 v 9.59 h -2.953 l -0.047,0.047 v 14.441 l 0.047,0.047 h 9.441 z"
         id="front_outsideCutPath"
         stroke="#000000"
         stroke-width="0.1"
         style="stroke:#000000;stroke-width:0.1;stroke-miterlimit:4;stroke-dasharray:none"
         vector-effect="non-scaling-stroke" />
      <rect
         style="fill:none;stroke:#000000;stroke-width:0.1"
         id="rect1758"
         width="54"
         height="19.700001"
         x="103.65895"
         y="39.574764" />
      <g
         id="svgGroup-2"
         stroke-linecap="round"
         fill-rule="evenodd"
         font-size="12px"
         stroke="#000"
         stroke-width="0.25mm"
         fill="none"
         style="fill:none;stroke:#000000;stroke-width:0.1;stroke-miterlimit:4;stroke-dasharray:none"
         transform="translate(83.43739,23.173798)">
        <path
           d="m 126.11546,5.3587337 -2.95263,0.00206 c -0.10182,5.13e-5 5e-5,0.1027473 0,0 l -0.002,-2.8769256 c -5e-5,-0.1027577 -0.10182,5.14e-5 0,0 l 5.90527,-0.00308 c 0.10183,-6.17e-5 -5e-5,-0.1027576 0,0 l 0.002,2.8769152 c 5e-5,0.1027577 0.10182,-5.14e-5 0,0 z"
           stroke="#0000ff"
           stroke-width="0.2"
           id="path60-93-87-60"
           style="fill:none;stroke:#000000;stroke-width:0.1;stroke-linecap:round;stroke-linejoin:round;stroke-miterlimit:4;stroke-dasharray:none;stroke-opacity:1" />
        <path
           d="m 138.11564,5.3520491 -2.95313,0.00206 c -0.10184,6.16e-5 6e-5,0.1027573 0,0 l -0.001,-2.8769175 c -6e-5,-0.102747 -0.10184,6.17e-5 0,0 l 5.90626,-0.00308 c 0.10184,-5.14e-5 -6e-5,-0.1027471 0,0 l 0.001,2.8769174 c 5e-5,0.1027573 0.10184,-5.14e-5 0,0 z"
           stroke="#0000ff"
           stroke-width="0.2"
           id="path62-3-5-3"
           style="fill:none;stroke:#000000;stroke-width:0.1;stroke-linecap:round;stroke-linejoin:round;stroke-miterlimit:4;stroke-dasharray:none;stroke-opacity:1" />
        <path
           d="m 150.11484,5.3453829 -2.95264,0.00206 c -0.10181,5.14e-5 6e-5,0.1027474 0,0 l -0.002,-2.8769256 c -5e-5,-0.1027473 -0.10182,5.14e-5 0,0 l 5.90527,-0.00308 c 0.10182,-5.14e-5 -5e-5,-0.1027475 0,0 l 0.002,2.8769256 c 6e-5,0.1027473 0.10182,-5.14e-5 0,0 z"
           stroke="#0000ff"
           stroke-width="0.2"
           id="path64-2-4-5"
           style="fill:none;stroke:#000000;stroke-width:0.1;stroke-linecap:round;stroke-linejoin:round;stroke-miterlimit:4;stroke-dasharray:none;stroke-opacity:1" />
        <path
           d="m 162.11502,5.3387085 -2.95313,0.00206 c -0.10184,5.14e-5 6e-5,0.1027471 0,0 l -0.001,-2.8769174 c -5e-5,-0.1027573 -0.10184,5.14e-5 0,0 l 5.90626,-0.00308 c 0.10184,-6.16e-5 -5e-5,-0.1027573 0,0 l 0.001,2.8769175 c 6e-5,0.102747 0.10184,-6.17e-5 0,0 z"
           stroke="#0000ff"
           stroke-width="0.2"
           id="path66-4-6-8"
           style="fill:none;stroke:#000000;stroke-width:0.1;stroke-linecap:round;stroke-linejoin:round;stroke-miterlimit:4;stroke-dasharray:none;stroke-opacity:1" />
        <path
           d="m 174.11423,5.3320319 -2.95264,0.00206 c -0.10182,6.16e-5 6e-5,0.1027576 0,0 l -0.002,-2.8769255 c -5e-5,-0.1027473 -0.10182,6.17e-5 0,0 l 5.90527,-0.00308 c 0.10183,-5.13e-5 -4e-5,-0.1027474 0,0 l 0.002,2.8769255 c 5e-5,0.1027576 0.10182,-5.14e-5 0,0 z"
           stroke="#0000ff"
           stroke-width="0.2"
           id="path68-9-05-33"
           style="fill:none;stroke:#000000;stroke-width:0.1;stroke-linecap:round;stroke-linejoin:round;stroke-miterlimit:4;stroke-dasharray:none;stroke-opacity:1" />
        <path
           d="m 126.11528,67.65548 -2.95252,0.0021 c -0.10182,5.2e-5 5e-5,0.103651 0,0 l -0.002,-2.902191 c -5e-5,-0.103661 -0.10181,5.2e-5 0,0 l 5.90505,-0.0031 c 0.10182,-6.2e-5 -5e-5,-0.103661 0,0 l 0.002,2.902181 c 5e-5,0.103661 0.10181,-5.2e-5 0,0 z"
           stroke="#0000ff"
           stroke-width="0.2"
           id="path60-93-87-6-2"
           style="fill:none;stroke:#000000;stroke-width:0.1;stroke-linecap:round;stroke-linejoin:round;stroke-miterlimit:4;stroke-dasharray:none;stroke-opacity:1" />
        <path
           d="m 138.11565,67.630133 -2.95307,0.0021 c -0.10184,6.2e-5 6e-5,0.102983 0,0 l -0.001,-2.883229 c -6e-5,-0.102973 -0.10184,6.1e-5 0,0 l 5.90613,-0.0031 c 0.10184,-5.2e-5 -6e-5,-0.102973 0,0 l 0.001,2.883229 c 5e-5,0.102983 0.10185,-5.2e-5 0,0 z"
           stroke="#0000ff"
           stroke-width="0.2"
           id="path62-3-5-2-1"
           style="fill:none;stroke:#000000;stroke-width:0.1;stroke-linecap:round;stroke-linejoin:round;stroke-miterlimit:4;stroke-dasharray:none;stroke-opacity:1" />
        <path
           d="m 150.11473,67.623452 -2.95257,0.0021 c -0.10182,5.1e-5 6e-5,0.102973 0,0 l -0.002,-2.883237 c -5e-5,-0.102973 -0.10182,5.1e-5 0,0 l 5.90515,-0.0031 c 0.10182,-5.2e-5 -5e-5,-0.102973 0,0 l 0.002,2.883237 c 6e-5,0.102973 0.10182,-5.2e-5 0,0 z"
           stroke="#0000ff"
           stroke-width="0.2"
           id="path64-2-4-2-6"
           style="fill:none;stroke:#000000;stroke-width:0.1;stroke-linecap:round;stroke-linejoin:round;stroke-miterlimit:4;stroke-dasharray:none;stroke-opacity:1" />
        <path
           d="m 162.1148,67.616763 -2.95308,0.0021 c -0.10184,5.2e-5 6e-5,0.102973 0,0 l -0.001,-2.883229 c -5e-5,-0.102983 -0.10184,5.1e-5 0,0 l 5.90613,-0.0031 c 0.10184,-6.2e-5 -5e-5,-0.102984 0,0 l 0.001,2.883229 c 6e-5,0.102973 0.10185,-6.2e-5 0,0 z"
           stroke="#0000ff"
           stroke-width="0.2"
           id="path66-4-6-7-2"
           style="fill:none;stroke:#000000;stroke-width:0.1;stroke-linecap:round;stroke-linejoin:round;stroke-miterlimit:4;stroke-dasharray:none;stroke-opacity:1" />
        <path
           d="m 174.11388,67.610072 -2.95257,0.0021 c -0.10182,6.2e-5 6e-5,0.102983 0,0 l -0.002,-2.883237 c -5e-5,-0.102973 -0.10182,6.1e-5 0,0 l 5.90515,-0.0031 c 0.10182,-5.1e-5 -4e-5,-0.102972 0,0 l 0.002,2.883238 c 5e-5,0.102983 0.10182,-5.2e-5 0,0 z"
           stroke="#0000ff"
           stroke-width="0.2"
           id="path68-9-05-3-3"
           style="fill:none;stroke:#000000;stroke-width:0.1;stroke-linecap:round;stroke-linejoin:round;stroke-miterlimit:4;stroke-dasharray:none;stroke-opacity:1" />
        <rect
           style="fill:none;stroke:#000000;stroke-width:0.1;stroke-linecap:round;stroke-linejoin:round;stroke-miterlimit:4;stroke-dasharray:none;stroke-opacity:1"
           id="rect1831-3-9"
           width="10.646161"
           height="9.9206753"
           x="144.73471"
           y="22.688608" />
        <g
           id="g1156"
           transform="translate(253.06161,-192.04906)"
           style="stroke-width:0.1;stroke-miterlimit:4;stroke-dasharray:none">
          <g
             id="g1156-5"
             transform="translate(49.798203,-104.99262)"
             style="stroke-width:0.1;stroke-miterlimit:4;stroke-dasharray:none">
            <g
               id="g2586"
               transform="translate(-32.83657,-149.64717)"
               style="fill:none;stroke-width:0.1;stroke-linecap:round;stroke-linejoin:round;stroke-miterlimit:4;stroke-dasharray:none" />
          </g>
        </g>
        <rect
           style="fill:none;fill-opacity:1;stroke:#000000;stroke-width:0.1;stroke-linejoin:miter;stroke-miterlimit:4;stroke-dasharray:none;stroke-opacity:1"
           id="rect907-9"
           width="5.9824772"
           height="2.9824772"
           x="30.560575"
           y="-137.46388"
           transform="rotate(90)" />
        <rect
           style="fill:none;fill-opacity:1;stroke:#000000;stroke-width:0.1;stroke-linejoin:miter;stroke-miterlimit:4;stroke-dasharray:none;stroke-opacity:1"
           id="rect907-9-9"
           width="5.9824772"
           height="2.9824772"
           x="18.400759"
           y="-137.46388"
           transform="rotate(90)" />
        <rect
           style="fill:none;fill-opacity:1;stroke:#000000;stroke-width:0.1;stroke-linejoin:miter;stroke-miterlimit:4;stroke-dasharray:none;stroke-opacity:1"
           id="rect907-3-06"
           width="5.9823885"
           height="2.9823883"
           x="18.399805"
           y="-165.66286"
           transform="rotate(90)" />
        <rect
           style="fill:none;fill-opacity:1;stroke:#000000;stroke-width:0.1;stroke-linejoin:miter;stroke-miterlimit:4;stroke-dasharray:none;stroke-opacity:1"
           id="rect907-3-06-0"
           width="5.9824772"
           height="2.9824772"
           x="30.560575"
           y="-165.66388"
           transform="rotate(90)" />
        <path
           d="m 125.81957,107.57997 v -2.953 h 9.59 v 2.953 l 0.047,0.047 h 9.816 l 0.047,-0.047 v -2.953 h 9.59 v 2.953 l 0.047,0.047 h 9.816 l 0.047,-0.047 v -2.953 h 9.59 v 2.953 l 0.047,0.047 h 13.191 l 0.047,-0.047 V 93.251965 h 2.953 l 0.047,-0.047 v -9.816 l -0.047,-0.047 h -2.953 v -9.59 h 2.953 l 0.047,-0.047 v -9.816 l -0.047,-0.047 h -2.953 v -9.59 h 2.953 l 0.047,-0.047 v -9.816 l -0.047,-0.047 h -2.953 v -9.59 h 2.953 l 0.047,-0.047 v -9.816 l -0.047,-0.047 h -2.953 v -9.59 h 2.953 l 0.047,-0.047 v -9.816 l -0.047,-0.047 h -2.953 v -9.59 h 2.953 l 0.047,-0.047 v -9.816 l -0.047,-0.047 h -2.953 v -14.328 l -0.047,-0.047 h -13.191 l -0.047,0.047 v 2.953 h -9.59 v -2.953 l -0.047,-0.047 h -9.816 l -0.047,0.047 v 2.953 h -9.59 v -2.953 l -0.047,-0.047 h -9.816 l -0.047,0.047 v 2.953 h -9.59 v -2.953 l -0.047,-0.047 h -13.191 l -0.047,0.047 v 14.328 h -2.953 l -0.047,0.047 v 9.816 l 0.047,0.047 h 2.953 v 9.59 h -2.953 l -0.047,0.047 v 9.816 l 0.047,0.047 h 2.953 v 9.59 h -2.953 l -0.047,0.047 v 9.816 l 0.047,0.047 h 2.953 v 9.59 h -2.953 l -0.047,0.047 v 9.816 l 0.047,0.047 h 2.953 v 9.59 h -2.953 l -0.047,0.047 v 9.816 l 0.047,0.047 h 2.953 v 9.59 h -2.953 l -0.047,0.047 v 9.816 l 0.047,0.047 h 2.953 v 14.328005 l 0.047,0.047 h 13.191 z"
           id="right_outsideCutPath"
           stroke="#000000"
           stroke-width="0.1"
           style="font-size:12px;fill:none;fill-rule:evenodd;stroke:#000000;stroke-width:0.1;stroke-linecap:round;stroke-miterlimit:4;stroke-dasharray:none;stroke-opacity:1"
           vector-effect="non-scaling-stroke" />
        <g
           id="g2487"
           transform="translate(-11,-2)"
           style="stroke-width:0.1;stroke-miterlimit:4;stroke-dasharray:none">
          <rect
             style="fill:none;stroke:#000000;stroke-width:0.1;stroke-linecap:round;stroke-linejoin:round;stroke-miterlimit:4;stroke-dasharray:none;stroke-opacity:1"
             id="rect1831-3-9-2"
             width="10.646161"
             height="9.9206753"
             x="241.98293"
             y="31.929361" />
          <path
             d="m 206.77244,-6.95264 h 2.953 v 9.59 h -2.953 l -0.047,0.047 v 9.816 l 0.047,0.047 h 2.953 v 9.59 h -2.953 l -0.047,0.047 v 9.816 l 0.047,0.047 h 2.953 v 9.59 h -2.953 l -0.047,0.047 v 9.816 l 0.047,0.047 h 2.953 v 9.59 h -2.953 l -0.047,0.047 v 9.816 l 0.047,0.047 h 2.953 v 9.59 h -2.953 l -0.047,0.047 v 9.816 l 0.047,0.047 h 2.953 v 6.328 l 0.047,0.047 h 13.078 v 2.953 l 0.047,0.047 h 9.816 l 0.047,-0.047 v -2.953 h 9.59 v 2.953 l 0.047,0.047 h 9.816 l 0.047,-0.047 v -2.953 h 9.59 v 2.953 l 0.047,0.047 h 9.816 l 0.047,-0.047 v -2.953 h 13.078 l 0.047,-0.047 v -6.328 h 2.953 l 0.047,-0.047 v -9.816 l -0.047,-0.047 h -2.953 v -9.59 h 2.953 l 0.047,-0.047 v -9.816 l -0.047,-0.047 h -2.953 v -9.59 h 2.953 l 0.047,-0.047 v -9.816 l -0.047,-0.047 h -2.953 v -9.59 h 2.953 l 0.047,-0.047 v -9.816 l -0.047,-0.047 h -2.953 v -9.59 h 2.953 l 0.047,-0.047 v -9.816 l -0.047,-0.047 h -2.953 v -9.59 h 2.953 l 0.047,-0.047 v -9.816 l -0.047,-0.047 h -2.953 v -6.328 l -0.047,-0.047 h -13.078 v -2.953 l -0.047,-0.047 h -9.816 l -0.047,0.047 v 2.953 h -9.59 v -2.953 l -0.047,-0.047 h -9.816 l -0.047,0.047 v 2.953 h -9.59 v -2.953 l -0.047,-0.047 h -9.816 l -0.047,0.047 v 2.953 h -13.078 l -0.047,0.047 v 6.328 h -2.953 l -0.047,0.047 v 9.816 z"
             id="top_outsideCutPath"
             stroke="#000000"
             stroke-width="0.1"
             style="font-size:12px;fill:none;fill-rule:evenodd;stroke:#000000;stroke-width:0.1;stroke-linecap:round;stroke-miterlimit:4;stroke-dasharray:none"
             vector-effect="non-scaling-stroke" />
        </g>
        <path
           d="m 129.19457,247.73997 v -2.953 h 9.59 v 2.953 l 0.047,0.047 h 9.816 l 0.047,-0.047 v -2.953 h 9.59 v 2.953 l 0.047,0.047 h 9.816 l 0.047,-0.047 v -2.953 h 9.59 v 2.953 l 0.047,0.047 h 9.816 l 0.047,-0.047 v -2.953 h 9.59 v 2.953 l 0.047,0.047 h 9.816 l 0.047,-0.047 v -2.953 h 9.59 v 2.953 l 0.047,0.047 h 9.816 l 0.047,-0.047 v -2.953 h 9.59 v 2.953 l 0.047,0.047 h 9.441 l 0.047,-0.047 v -14.441 l -0.047,-0.047 h -2.953 v -9.59 h 2.953 l 0.047,-0.047 v -9.816 l -0.047,-0.047 h -2.953 v -9.59 h 2.953 l 0.047,-0.047 v -9.816 l -0.047,-0.047 h -2.953 v -9.59 h 2.953 l 0.047,-0.047 v -9.816 l -0.047,-0.047 h -2.953 v -9.59 h 2.953 l 0.047,-0.047 v -9.816 l -0.047,-0.047 h -2.953 v -9.59 h 2.953 l 0.047,-0.047 v -9.816 l -0.047,-0.047 h -2.953 v -9.59 h 2.953 l 0.047,-0.047 v -14.441 l -0.047,-0.047 h -9.441 l -0.047,0.047 v 2.953 h -9.59 v -2.953 l -0.047,-0.047 h -9.816 l -0.047,0.047 v 2.953 h -9.59 v -2.953 l -0.047,-0.047 h -9.816 l -0.047,0.047 v 2.953 h -9.59 v -2.953 l -0.047,-0.047 h -9.816 l -0.047,0.047 v 2.953 h -9.59 v -2.953 l -0.047,-0.047 h -9.816 l -0.047,0.047 v 2.953 h -9.59 v -2.953 l -0.047,-0.047 h -9.816 l -0.047,0.047 v 2.953 h -9.59 v -2.953 l -0.047,-0.047 h -9.441 l -0.047,0.047 v 14.441 l 0.047,0.047 h 2.953 v 9.59 h -2.953 l -0.047,0.047 v 9.816 l 0.047,0.047 h 2.953 v 9.59 h -2.953 l -0.047,0.047 v 9.816 l 0.047,0.047 h 2.953 v 9.59 h -2.953 l -0.047,0.047 v 9.816 l 0.047,0.047 h 2.953 v 9.59 h -2.953 l -0.047,0.047 v 9.816 l 0.047,0.047 h 2.953 v 9.59 h -2.953 l -0.047,0.047 v 9.816 l 0.047,0.047 h 2.953 v 9.59 h -2.953 l -0.047,0.047 v 14.441 l 0.047,0.047 h 9.441 z"
           id="back_outsideCutPath"
           stroke="#000000"
           stroke-width="0.1"
           style="font-size:12px;fill:none;fill-rule:evenodd;stroke:#000000;stroke-width:0.1;stroke-linecap:round;stroke-miterlimit:4;stroke-dasharray:none"
           vector-effect="non-scaling-stroke" />
        <path
           style="fill:none;stroke:#000000;stroke-width:0.1;stroke-linecap:butt;stroke-linejoin:miter;stroke-miterlimit:4;stroke-dasharray:none;stroke-opacity:1"
           d="m 112.53457,5.3419638 h 70.16"
           id="path880" />
      </g>
      <path
         style="fill:none;stroke:#000000;stroke-width:0.264583px;stroke-linecap:butt;stroke-linejoin:miter;stroke-opacity:1"
         d="M 195.97196,-5.3122371 V 28.51576"
         id="path1956" />
      <path
         style="fill:none;stroke:#000000;stroke-width:0.127721;stroke-linecap:butt;stroke-linejoin:miter;stroke-miterlimit:4;stroke-dasharray:none;stroke-opacity:1"
         d="M 260.55159,90.79773 59.552713,90.81542"
         id="path885" />
      <circle
         style="fill:none;stroke:#000000;stroke-width:0.049873;stroke-miterlimit:4;stroke-dasharray:none"
         id="path1025"
         cx="169.95766"
         cy="96.919205"
         r="5.8600636" />
      <circle
         style="fill:none;stroke:#000000;stroke-width:0.049873;stroke-miterlimit:4;stroke-dasharray:none"
         id="path1025-1"
         cx="145.87271"
         cy="96.919205"
         r="5.8600636" />
      <circle
         style="fill:none;stroke:#000000;stroke-width:0.049873;stroke-miterlimit:4;stroke-dasharray:none"
         id="path1025-1-1"
         cx="121.7877"
         cy="96.919205"
         r="5.8600636" />
      <circle
         style="fill:none;stroke:#000000;stroke-width:0.049873;stroke-miterlimit:4;stroke-dasharray:none"
         id="path1025-1-1-4"
         cx="90.957703"
         cy="96.919205"
         r="5.8600636" />
      <path
         style="fill:none;stroke:#000000;stroke-width:0.0598211;stroke-linecap:butt;stroke-linejoin:miter;stroke-miterlimit:4;stroke-dasharray:none;stroke-opacity:1"
         d="M 112.81195,116.19976 H 69.811951"
         id="path1241" />
      <path
         style="fill:none;stroke:#000000;stroke-width:0.0865449;stroke-linecap:butt;stroke-linejoin:miter;stroke-miterlimit:4;stroke-dasharray:none;stroke-opacity:1"
         d="m 69.811951,116.19976 h 89.999999 l -0.0563,-25.284774"
         id="path1241-6"
         sodipodi:nodetypes="ccc" />
      <path
         style="fill:none;stroke:#000000;stroke-width:0.264583px;stroke-linecap:butt;stroke-linejoin:miter;stroke-opacity:1"
         d="m 112.81195,116.19976 0.007,-25.481906"
         id="path1491"
         sodipodi:nodetypes="cc" />
      <path
         style="fill:none;stroke:#000000;stroke-width:0.264583px;stroke-linecap:butt;stroke-linejoin:miter;stroke-opacity:1"
         d="m 85.010001,96.461607 -15.19805,0.238154"
         id="path1649-1" />
      <rect
         style="fill:none;stroke:#000000;stroke-width:0.279834;stroke-miterlimit:4;stroke-dasharray:none"
         id="rect2220"
         width="2.8201659"
         height="19.720165"
         x="111.25426"
         y="96.530609" />
      <rect
         style="fill:none;stroke:#000000;stroke-width:0.311353;stroke-miterlimit:4;stroke-dasharray:none"
         id="rect2220-2"
         width="2.7886467"
         height="24.688646"
         x="158.45139"
         y="90.930748" />
      <path
         style="fill:none;stroke:#000000;stroke-width:0.241267px;stroke-linecap:butt;stroke-linejoin:miter;stroke-opacity:1"
         d="m 96.759968,96.449949 18.063952,0.09231"
         id="path2357" />
    </g>
  </g>
</svg>
